<?xml version="1.0" standalone="no"?>
<!DOCTYPE svg PUBLIC "-//W3C//DTD SVG 1.1//EN" "http://www.w3.org/Graphics/SVG/1.1/DTD/svg11.dtd" >
<svg xmlns="http://www.w3.org/2000/svg">
<metadata>Generated by IcoMoon</metadata>
<defs>
<font id="icomoon" horiz-adv-x="1024">
<font-face units-per-em="1024" ascent="960" descent="-64" />
<missing-glyph horiz-adv-x="1024" />
<glyph unicode="&#x20;" horiz-adv-x="512" d="" />
<glyph unicode="&#xe900;" glyph-name="bag" d="M334.6 111.507c45.304 0 82.075-33.637 82.075-78.103 0-44.528-36.74-80.586-82.075-80.586-45.304 0-79.562 36.057-79.562 80.586 0 44.466 34.226 78.103 79.562 78.103zM781.56 111.507c45.304 0 82.075-34.847 82.075-79.344 0-44.528-36.74-80.586-82.075-80.586-45.304 0-82.044 36.057-82.044 80.586 0 44.497 36.74 79.344 82.044 79.344zM112.392 942.002c83.347 0 81.703-78.755 81.703-78.755l17.098-80.337 735.015 1.024c73.232 0 77.296-76.645 77.296-76.645l-0.372-281.445c0-76.862-77.762-78.445-77.762-78.445l-685.149-0.652 16.291-79.096h618.713c22.342 0 47.973 11.978 47.973-59.516 0-61.564-25.662-56.972-47.973-56.972h-684.373c-0.12-0.001-0.263-0.002-0.405-0.002-21.96 0-39.787 17.697-39.996 39.608v0.020c0 17.47-103.331 634.725-103.331 634.725l-66.808-0.093c0.031 146.277 112.050 116.581 112.050 116.581zM237.382 624.687l15.143-119.001c0.21-21.947 18.050-39.658 40.027-39.658 0.132 0 0.263 0.001 0.394 0.002h569.417c0.12-0.001 0.263-0.002 0.405-0.002 21.977 0 39.818 17.711 40.027 39.639v119.021c-0.192 21.961-18.039 39.69-40.028 39.69-0.142 0-0.284-0.001-0.426-0.002h-584.589c-0.102 0.001-0.222 0.001-0.343 0.001-21.988 0-39.835-17.728-40.028-39.671v-0.018z" />
<glyph unicode="&#xe901;" glyph-name="box" d="M510.009 945.835l512.967-219.961-512.484-219.193-507.278 218.709zM1023.602 690.489v-503.552l-492.828-236.26v528.441zM494.507 479.147v-528.469l-494.535 236.26v503.552zM150.642 423.993l190.635-89.486 1.081 70.542-190.606 89.458z" />
<glyph unicode="&#xe902;" glyph-name="bubble" d="M163.84 934.4h696.32c93.44 0 163.84-66.765 163.84-161.434v-403.763c-0.285-89.252-72.704-161.495-161.996-161.495-0.648 0-1.296 0.004-1.942 0.011l0.098-0.001h-324.301l-245.76-245.606-47.77 245.606h-78.49c-101.171 0-163.84 71.936-163.84 161.485v403.712c0 97.229 67.789 161.536 163.84 161.536z" />
<glyph unicode="&#xe903;" glyph-name="close" d="M994.759 930.645c17.646-17.646 28.56-42.023 28.56-68.949s-10.914-51.304-28.56-68.949l-344.747-344.747 344.747-344.747c17.66-17.66 28.583-42.058 28.583-69.006 0-53.897-43.692-97.59-97.59-97.59-26.949 0-51.346 10.923-69.006 28.583l-344.747 344.747-344.747-344.747c-17.354-16.092-40.673-25.965-66.297-25.965-53.915 0-97.621 43.707-97.621 97.621 0 25.653 9.895 48.995 26.076 66.418l-0.056-0.061 344.747 344.747-344.747 344.747c-17.636 17.65-28.543 42.026-28.543 68.949 0 53.875 43.674 97.549 97.549 97.549 26.952 0 51.35-10.93 69.006-28.599l344.747-344.747 344.633 344.747c17.658 17.619 42.031 28.513 68.949 28.513s51.291-10.895 68.951-28.515l-0.002 0.002z" />
<glyph unicode="&#xe904;" glyph-name="double-arrow-next" d="M571.538 400.603l-466.359-445.879-1.39 1.39c-1.843-3.624-4.167-6.718-6.934-9.349l-0.014-0.014c-6.519-6.108-15.311-9.859-24.978-9.859s-18.459 3.751-24.998 9.878l0.020-0.019c-6.366 5.992-10.331 14.473-10.331 23.881s3.965 17.889 10.314 23.866l0.017 0.016c2.787 2.649 6.025 4.857 9.581 6.492l0.22 0.091-1.463 1.463 466.359 445.806-466.359 445.879 1.463 1.463c-3.803 1.696-7.067 3.882-9.894 6.528l0.020-0.018c-6.363 5.98-10.325 14.449-10.325 23.845s3.963 17.865 10.308 23.829l0.017 0.016c6.505 6.14 15.301 9.913 24.978 9.913s18.473-3.774 24.996-9.93l-0.018 0.017c2.926-2.779 5.266-5.925 6.949-9.289l1.463 1.39 516.242-493.714zM937.253 400.603l-466.359-445.879-1.39 1.39c-1.822-3.622-4.122-6.716-6.864-9.352l-0.011-0.011c-6.524-6.128-15.33-9.893-25.015-9.893s-18.491 3.765-25.034 9.911l0.019-0.018c-6.366 5.992-10.331 14.473-10.331 23.881s3.965 17.889 10.314 23.866l0.017 0.016c2.787 2.649 6.025 4.857 9.581 6.492l0.22 0.091-1.463 1.463 466.359 445.806-466.359 445.879 1.463 1.463c-3.803 1.696-7.067 3.882-9.894 6.528l0.020-0.018c-6.363 5.98-10.325 14.449-10.325 23.845s3.963 17.865 10.308 23.829l0.017 0.016c6.51 6.16 15.32 9.948 25.015 9.948s18.505-3.788 25.032-9.964l-0.017 0.016c2.926-2.779 5.12-5.925 6.875-9.289l1.463 1.39 516.242-493.714z" />
<glyph unicode="&#xe905;" glyph-name="facebook" horiz-adv-x="476" d="M110.080 450.56h-110.080v171.52h110.080v161.28c0 0-5.12 69.12 35.84 115.2 48.64 53.76 92.16 61.44 125.44 61.44 25.6 0 204.8 0 204.8 0v-179.2h-130.56c0 0-25.6-7.68-25.6-35.84s0-122.88 0-122.88h156.16l-15.36-174.080h-140.8v-512h-209.92v514.56z" />
<glyph unicode="&#xe906;" glyph-name="instagram" d="M847.36 721.92c0-33.28-28.16-61.44-61.44-61.44s-61.44 28.16-61.44 61.44c0 0 0 0 0 0 0 33.28 28.16 61.44 61.44 61.44s61.44-28.16 61.44-61.44zM683.52 448c0 94.72-76.8 171.52-171.52 171.52s-171.52-76.8-171.52-171.52 76.8-171.52 171.52-171.52 171.52 76.8 171.52 171.52zM775.68 448c0-145.92-117.76-263.68-263.68-263.68s-263.68 117.76-263.68 263.68 117.76 263.68 263.68 263.68 263.68-117.76 263.68-263.68v0zM724.48 957.44c186.88-7.68 289.28-112.64 296.96-296.96 2.56-56.32 2.56-74.24 2.56-212.48s0-156.16-2.56-212.48c-7.68-186.88-112.64-289.28-296.96-296.96-56.32-2.56-74.24-2.56-212.48-2.56-140.8 0-156.16 0-212.48 2.56-184.32 7.68-289.28 112.64-296.96 296.96-2.56 56.32-2.56 74.24-2.56 212.48 0 140.8 0 156.16 2.56 212.48 7.68 184.32 112.64 289.28 299.52 296.96 53.76 2.56 71.68 2.56 209.92 2.56s156.16 0 212.48-2.56zM512 867.84c-135.68 0-153.6 0-207.36-2.56-138.24-7.68-202.24-74.24-209.92-209.92-2.56-53.76-2.56-71.68-2.56-207.36s0-151.040 2.56-207.36c5.12-135.68 71.68-202.24 209.92-209.92 53.76-2.56 71.68-2.56 207.36-2.56s151.040 0 207.36 2.56c138.24 5.12 202.24 71.68 209.92 209.92 2.56 53.76 2.56 71.68 2.56 207.36s0 153.6-2.56 207.36c-5.12 138.24-71.68 204.8-209.92 209.92-53.76 2.56-69.12 2.56-207.36 2.56z" />
<glyph unicode="&#xe907;" glyph-name="like" d="M513.687 719.119s-73.367 150.95-238.532 150.95c-180.344 0-275.155-147.576-275.155-295.153 0-244.917 513.687-548.864 513.687-548.864s510.675 300.996 510.675 548.924c0 150.468-97.822 295.153-272.143 295.153s-238.532-151.010-238.532-151.010z" />
<glyph unicode="&#xe908;" glyph-name="mail" d="M954.228 774.191s68.561-0.745 68.561-73.123l-436.55-360.262s-61.626-81.455-143.919 0l-440.785 361.379s-2.839 72.006 65.955 72.006zM0 665.274l217.786-184.785-144.012-282.857 183.389 249.484 142.848-121.204s43.427-61.114 109.708-61.114c0 0 55.622-9.076 112.733 58.787l144.803 123.252 185.111-250.182-139.031 289.327 210.665 179.293v-472.902s-6.842-70.144-73.169-70.144h-882.269s-68.561-0.047-68.561 72.425z" />
<glyph unicode="&#xe909;" glyph-name="phone" d="M658.663 600.939c44.494-19.489 91.962-51.993 128.595-106.133l71.581-220.226v-108.015c0-63.323-68.806-66.065-68.806-66.065h-558.807c-71.581 0-66.065 66.065-66.065 66.065v112.64c1.189-11.363 66.065 216.295 66.065 216.295 26.855 52.356 79.608 84.331 133.021 103.886v34.42s-2.973 60.911 64.149 60.911h165.161s67.055 1.024 67.055-66.065zM165.161 279.205v0.892zM271.657 668.589c6.871-16.913 28.011-53.512 28.011-53.512l-234.859-119.081-40.266 81.094s-44.164 74.223 40.431 118.322l68.707 36.93s141.94 62.497 353.544 62.497h41.29c268.387 0 361.802-62.497 361.802-62.497l68.707-36.93c84.596-44.098 40.431-118.355 40.431-118.355l-43.008-81.061-232.151 119.015s16.913 25.005 27.747 51.629c0.848 2.506 2.049 4.677 3.568 6.584l-0.034-0.044c-0.595-0.264-2.246-0.462-5.087 1.982-63.224 53.81-213.719 53.611-213.719 53.611h-49.548c-103.226 0-212.662-46.476-212.662-46.476-5.153-3.105-10.405-0.132-2.907-13.774zM429.221 466.036c0-35.411 36.203-66.164 80.929-66.164 44.693 0 80.929 30.753 80.929 66.164 0 35.378-36.236 64.083-80.929 64.083-44.726 0-80.929-28.705-80.929-64.083zM363.355 448c0-9.687 7.853-17.54 17.54-17.54s17.54 7.853 17.54 17.54v0c0 9.687-7.853 17.54-17.54 17.54s-17.54-7.853-17.54-17.54v0zM395.363 514.065c0.185-9.709 8.099-17.508 17.834-17.508 0.071 0 0.141 0 0.212 0.001h-0.011c0.070-0.001 0.152-0.002 0.234-0.002 9.736 0 17.65 7.8 17.834 17.491v0.017c-0.148 9.738-8.077 17.575-17.835 17.575-0.082 0-0.164-0.001-0.246-0.002h0.012c-0.059 0.001-0.13 0.001-0.2 0.001-9.759 0-17.687-7.837-17.835-17.56v-0.014zM462.419 546.601c-0.001-0.069-0.002-0.151-0.002-0.233 0-9.759 7.837-17.687 17.561-17.835h0.014c9.723 0.166 17.542 8.088 17.542 17.835 0 0.082-0.001 0.164-0.002 0.246v-0.012c0.001 0.060 0.001 0.13 0.001 0.201 0 9.736-7.8 17.649-17.491 17.834h-0.017c-9.738-0.148-17.574-8.077-17.574-17.835 0-0.070 0-0.141 0.001-0.211v0.011zM528.483 546.601c0-9.414 7.432-17.045 16.516-17.045 9.15 0 16.549 7.597 16.549 17.045 0.001 0.069 0.002 0.151 0.002 0.233 0 9.175-7.364 16.63-16.504 16.778h-0.014c-9.117 0-16.516-7.597-16.516-17.012zM593.557 513.569c-0.021-0.317-0.033-0.687-0.033-1.061 0-9.413 7.631-17.045 17.045-17.045s17.045 7.631 17.045 17.045c0 0.373-0.012 0.744-0.036 1.111l0.003-0.050c-0.575 8.946-7.971 15.984-17.012 15.984s-16.437-7.038-17.009-15.934l-0.003-0.050zM627.58 446.976c0-9.678 7.432-17.54 16.516-17.54 9.15 0 16.516 7.862 16.516 17.54 0 9.711-7.366 17.54-16.516 17.54-9.084 0-16.516-7.829-16.516-17.507zM427.338 381.969c0-9.696 7.86-17.557 17.557-17.557s17.557 7.86 17.557 17.557v0c0 9.696-7.86 17.557-17.557 17.557s-17.557-7.86-17.557-17.557v0zM496.508 348.936c0-9.122 7.395-16.516 16.516-16.516s16.516 7.395 16.516 16.516v0c0 9.122-7.395 16.516-16.516 16.516s-16.516-7.395-16.516-16.516v0zM561.548 381.969c0-9.711 7.399-17.573 16.516-17.573s16.516 7.862 16.516 17.573c0 9.678-7.399 17.507-16.516 17.507s-16.516-7.829-16.516-17.507z" />
<glyph unicode="&#xe90a;" glyph-name="plane" d="M1023.685 901.159l-194.56-756.854-377.856 118.036 337.211 402.826-435.2-373.996-353.28 108.386zM563.712 166.794l-124.377-172.111v208.345z" />
<glyph unicode="&#xe90b;" glyph-name="search" horiz-adv-x="973" d="M578.739 393.549l120.73-120.934c7.572 7.681 18.091 12.439 29.722 12.439s22.149-4.758 29.717-12.434l0.005-0.005 200.832-203.213c16.435-16.614 16.435-43.52 0-60.16l-59.443-60.16c-16.41-16.614-43.008-16.614-59.443 0l-200.858 203.238c-7.611 7.738-12.31 18.36-12.31 30.080s4.699 22.342 12.316 30.086l-0.006-0.006-120.755 122.189s0 1.869-3.738 1.869c-50.801-33.507-113.118-53.453-180.094-53.453-0.163 0-0.326 0-0.489 0h0.026c-184.755 0-334.541 151.552-334.541 338.483s149.786 338.458 334.566 338.458 334.566-151.552 334.566-338.483c0.001-0.221 0.001-0.484 0.001-0.746 0-85.878-31.89-164.307-84.474-224.092l0.326 0.378zM109.568 624.819c0-124.339 99.635-227.456 222.515-227.456s227.098 103.117 227.098 227.456c0 124.314-104.218 225.101-227.098 225.101s-222.515-100.787-222.515-225.101z" />
<glyph unicode="&#xe90c;" glyph-name="twitter" d="M908.8 488.96c58.88 5.12 94.72 30.72 112.64 66.56-20.48-12.8-84.48-28.16-120.32-12.8l-5.12 23.040c-28.16 99.84-120.32 181.76-217.6 171.52l23.040 7.68c10.24 5.12 74.24 15.36 64 35.84-7.68 20.48-84.48-15.36-99.84-20.48 20.48 7.68 51.2 20.48 53.76 40.96-30.72-5.12-58.88-17.92-79.36-38.4 7.68 7.68 15.36 20.48 15.36 30.72-79.36-51.2-122.88-151.040-161.28-250.88-23.040 25.6-48.64 46.080-79.36 64-64 40.96-140.8 76.8-261.12 122.88-5.12-40.96 20.48-94.72 87.040-130.56-15.36 2.56-43.52-2.56-64-7.68 10.24-46.080 38.4-84.48 115.2-102.4-35.84-2.56-53.76-10.24-71.68-28.16 15.36-30.72 56.32-69.12 125.44-61.44-79.36-33.28-33.28-97.28 33.28-87.040-102.4-107.52-271.36-112.64-378.88-10.24 258.56-355.84 819.2-209.92 901.12 133.12 61.44 0 99.84 20.48 122.88 46.080-35.84-10.24-87.040-2.56-115.2 7.68z" />
<glyph unicode="&#xe90d;" glyph-name="user" d="M520.704-63.898c-2.901 0.102-5.803 0.273-8.738 0.444-2.935-0.171-5.837-0.341-8.738-0.444v0.956c-169.882 11.162-384.444 72.192-384.444 72.192v237.705c12.493 109.705 209.715 164.591 209.715 164.591l183.467-157.116 183.467 157.116s197.222-54.852 209.715-164.591v-237.705s-214.562-61.030-384.444-72.192zM311.023 832.102c29.935 117.555 192.205 128 192.205 128s159.983-10.445 189.542-128c0 0 39.356-284.74-189.542-347.409-232.141 62.669-192.205 347.409-192.205 347.409z" />
<glyph unicode="&#xe90e;" glyph-name="youtube" d="M512.693 839.529c49.965-1.385 97.551-1.928 145.016-4.216 43.58-2.108 87.1-5.752 130.59-9.397 37.376-3.102 74.601-7.891 111.224-15.902 39.273-8.614 71.439-28.491 93.847-62.645 9.879-15.059 14.637-31.955 17.92-49.483 8.373-44.634 15.059-89.54 19.245-134.746 3.192-34.696 6.114-69.512 7.439-104.328 0.873-23.251-0.813-46.622-2.259-69.933-1.566-25.66-3.765-51.29-6.415-76.86-2.65-25.299-6.084-50.537-9.457-75.776-1.897-14.155-3.735-28.371-6.837-42.285-7.048-31.985-25.66-56.169-52.495-74.27-20.51-13.854-43.279-22.046-67.644-25.57-31.624-4.548-63.247-9.276-94.991-12.89-28.16-3.192-56.41-5.813-84.721-7.319-47.977-2.5-96.015-4.337-143.992-5.692-57.856-1.687-115.712-0.663-173.508 1.897-38.701 1.747-77.432 3.945-116.043 7.319-38.219 3.343-76.288 8.102-114.327 13.011-17.709 2.289-35.539 4.909-52.495 11.083-37.195 13.613-66.349 36.412-83.245 73.156-5.783 12.74-8.072 26.353-10.511 39.906-6.746 37.165-11.294 74.632-14.185 112.279-4.307 55.356-5.843 110.773-4.186 166.249 0.873 29.214 2.199 58.428 4.156 87.582 2.59 38.792 7.258 77.372 13.011 115.863 2.65 17.559 7.048 34.364 16.354 49.604 16.956 27.859 41.864 45.779 71.921 57.163 19.396 7.349 39.755 10.481 60.085 13.282 31.413 4.367 62.916 8.343 94.479 11.204 34.967 3.162 70.024 5.542 105.111 7.048 49.754 2.168 99.539 3.223 146.914 4.668zM385.807 284.642c97.973 56.23 195.614 112.248 293.737 168.568-98.214 56.35-195.765 112.339-293.737 168.538 0-112.61 0-224.557 0-337.107z" />
</font></defs></svg>
